{
    "head": "",
    "body": "",
    "js_footer": {
        "0": "modules/certification/Certification.js"
    },
    "production": {
        "0": "modules/certification/Certification.min.js"
    },
    "productionIE": {
        "0": "modules/certification/Certification.ie.js"
    },
    "loadInfo": {
        "0": "certificationLoadContent()"
    },
    "js_external": ""
}