{
    "head": "",
    "body": "",
    "js_footer": {
        "0": "modules/404/404.js"
    },
    "production": {
        "0": "modules/404/404.min.js"
    },
    "productionIE": {
        "0": "modules/404/404.ie.js"
    },
    "loadInfo": {
        "0": "errorLoadContent()"
    }
}