{
    "head": "",
    "body": "",
    "js_footer": {
        "0": "modules/policy/Policy.js"
    },
    "production": {
        "0": "modules/policy/Policy.min.js"
    },
    "productionIE": {
        "0": "modules/policy/Policy.ie.js"
    },
    "loadInfo": {
        "0": "policyLoadContent()"
    },
    "js_external": ""
}